﻿Inventory is:
Code: 1 | Price: 3000 | Quantity: 7
Code: 2 | Price: 281.25 | Quantity: 1
Code: 3 | Price: 225 | Quantity: 3
Code: 4 | Price: 20 | Quantity: 6
Code: 5 | Price: 5 | Quantity: 30
Code: 6 | Price: 10 | Quantity: 15
Code: 7 | Price: 350 | Quantity: 10
Code: 8 | Price: 20 | Quantity: 1
Code: 9 | Price: 3 | Quantity: 40